…
-   **요약집계 기준변수 여러개로 요약집계 결과번수 여러개를 다차원분석**

<!-- -->

    diamonds %>% 
      group_by(cut, color) %>%
      dplyr::summarize(Avg_Price = mean(price),
                       Avg_Carat = mean(carat)) %>% 
      arrange(desc(Avg_Price), Avg_Carat)

    ## # A tibble: 35 x 4
    ## # Groups:   cut [5]
    ##    cut       color Avg_Price Avg_Carat
    ##    <ord>     <ord>     <dbl>     <dbl>
    ##  1 Premium   J         6295.      1.29
    ##  2 Premium   I         5946.      1.14
    ##  3 Very Good I         5256.      1.05
    ##  4 Premium   H         5217.      1.02
    ##  5 Fair      H         5136.      1.22
    ##  6 Very Good J         5104.      1.13
    ##  7 Good      I         5079.      1.06
    ##  8 Fair      J         4976.      1.34
    ##  9 Ideal     J         4918.      1.06
    ## 10 Fair      I         4685.      1.20
    ## # ... with 25 more rows
…
